{
    "speciesnames":{
        "description":"Scientific species names for connecting tables. These names can be accepted names, synonym names, subspecies names, etc... any scientific name which can be used in the other files.",
        "label_for_levels":"Give the corrected name",
        "levels":{},
        "level_method":"input",
        "sources":"",
        "restrictions":{"scientific_name":["not null","unique"]}
    },
    "auctor":{
        "description":"Auctors of species",
        "label_for_levels":"Give the auctor name",
        "levels":{},
        "level_method":"input",
        "sources":"",
        "restrictions":{"scientific_name":["not null","unique"]}
    },
    "chiroptera_hun":{
        "description":"Checklist for Hungarian Chiroptera species",
        "label_for_levels":"Give the species names and the name status",
        "levels":{
            "elfogadott":"accepted",
            "szinoním":"synonym"
        },
        "level_method":"values",
        "sources":"",
        "restrictions":{"scientific_name":["not null","unique"]}
    },
    "coleoptera_hun":{
        "description":"Checklist for Hungarian Coleoptera species",
        "label_for_levels":"Give the species names and the name status",
        "levels":{
            "elfogadott":"accepted",
            "szinoním":"synonym"
        },
        "level_method":"values",
        "sources":"",
        "restrictions":{"scientific_name":["not null","unique"]}
    },
    "common_mispells":{
        "description":"Common typos",
        "label_for_levels":"Type the mispelled name",
        "levels":{},
        "level_method":"input",
        "sources":"",
        "restrictions":{"scientific_name":["not null"]}
    },
    "conservation_value_hun":{
        "description":"Hungarian protection categories",
        "label_for_levels":"Choose a category",
        "levels":{
            "1000":"1000",
            "5000":"5000",
            "10000":"10000",
            "50000":"50000",
            "100000":"100000",
            "250000":"250000",
            "500000":"500000",
            "1000000":"1000000"
        },
        "level_method":"values",
        "source":"termeszetvedelem.hu",
        "restrictions":{"scientific_name":["not null","unique"]}
    },
    "fungi_hun": {
        "description":"Checklist for Hungarian fungi species",
        "label_for_levels":"Choose a category",
        "levels":{
            "elfogadott":"accepted",
            "szinoním":"synonym"
        },
        "level_method":"values",
        "source":"Bihari Zoltán",
        "restrictions":{"scientific_name":["not null","unique"]}
    },
    "iagreements_bern":{
        "description":"Species of Berne Convention on the Conservation of European Wildlife and Natural Habitats",
        "label_for_levels":"Choose a category",
        "levels":{
            "!":"!",
            "A-II":"A-II",
            "A-IV":"A-IV",
            "A-V":"A-V",
            "FV":"FV",
            "J-A":"J-A",
            "J-B":"J-B",
            "J-C":"J-C",
            "V":"V"
        },
        "level_method":"values",
        "sources":"BNPI, Sulyok József",
        "restrictions":{"scientific_name":["not null","unique"]}
    },
    "iagreements_corine":{
        "description":"",
        "label_for_levels":"Choose a category",
        "levels":{
            "!":"!",
            "E":"E",
            "J-C":"J-C",
            "R":"R"
        },
        "level_method":"values",
        "sources":"BNPI, Sulyok József",
        "restrictions":{"scientific_name":["not null","unique"]}
    },
    "iagreements_iucn":{
        "description":"Species of The International Union for Conservation of Nature",
        "label_for_levels":"Choose a category",
        "levels":{
            "Critically endangered":"CR",
            "Data deficient":"DD",
            "Endangered":"EN",
            "Extinct in the wild":"EW",
            "Extinct":"EX",
            "LR":"LR",
            "Near threatened":"NT",
            "Vulnerable":"VU"
        },
        "level_method":"values",
        "sources":"BNPI, Sulyok József",
        "restrictions":{"scientific_name":["not null","unique"]}
    },
    "iagreements_mvk":{
        "description":"Vörös könyv - A Magyarországon kipusztult és veszélyeztetett növény- és állatfajok, 1990",
        "label_for_levels":"Choose a category",
        "levels":{
            "!":"!",
            "Aktuálisan Veszélyeztetett":"AV",
            "Kipusztult":"K",
            "Kipusztulással Veszélyeztetett":"KV",
            "Potenciálisan Veszélyeztetett":"PV"
        },
        "level_method":"values",
        "sources":"BNPI, Sulyok József",
        "restrictions":{"scientific_name":["not null","unique"]}
    },
    "iagreements_redlist":{
        "description":"Red list of the vascular flora of Hungary. Ed. Király Gergely 2007",
        "label_for_levels":"Choose a category",
        "levels":{
            "!":"!",
            "Aktuálisan Veszélyeztetett":"AV",
            "Kipusztult":"K",
            "Kipusztulással Veszélyeztetett":"KV",
            "Potenciálisan Veszélyeztetett":"PV"
        },
        "level_method":"values",
        "sources":"BNPI, Sulyok József",
        "restrictions":{"scientific_name":["not null","unique"]}
    },
    "iagreements_washington":{
        "description":"Species of Washington Convention CITES",
        "label_for_levels":"Choose a category",
        "levels":{
            "Appendix I":"I",
            "Appendix II":"II",
            "Appendix III":"III"
        },
        "level_method":"values",
        "sources":"BNPI, Sulyok József",
        "restrictions":{"scientific_name":["not null","unique"]}
    },
    "lepidoptera_hun":{
        "description":"Checklist for Hungarian lepidoptera species",
        "label_for_levels":"Give the species names and the name status",
        "levels":{},
        "level_method":"input",
        "sources":"ANPI, Huber Attila",
        "restrictions":{"scientific_name":["not null","unique"]}
    },
    "namestatus": {
        "description":"Current name status according to GBIF database",
        "label_for_levels":"Choose the name status",
        "levels":{
            "accepted name":"accepted name",
            "synonym for":"synonym for %SELECT species_name FROM this WHERE namestatus='accepted name'%"
        },
        "label_for_template":"Choose the accepted name",
        "level_method":"template",
        "sources":"",
        "restrictions":{"scientific_name":["not null","unique"]}
    },
    "nationalnames_hun":{
        "description":"Common names of species: Hungarian",
        "label_for_levels":"Type the Hungarian name",
        "levels":{},
        "level_method":"input",
        "sources":"ANPI, Huber Attila, DINPI, BNPI",
        "restrictions":{"scientific_name":["not null"]}
    },
    "nationalnames_hun_newodonata":{
        "description":"New common names of Odonata species: Hungarian",
        "label_for_levels":"Type the Hungarian name",
        "levels":{},
        "level_method":"input",
        "sources":"Ferenc Attila, BNPI",
        "restrictions":{"scientific_name":["not null","unique"]}
    },
    "nationalnames_hun_mispells":{
        "description":"Frequent mispells of Common names of species: Hungarian",
        "label_for_levels":"Type the mispelled name",
        "levels":{},
        "level_method":"input",
        "sources":"",
        "restrictions":{"scientific_name":["not null"]}
    },
    "natura2000":{
        "description":"Natura 2000 species",
        "label_for_levels":"Choose a category",
        "levels":{
            "BD":"BD",
            "BD_2":"BD_2",
            "HD II":"HD II",
            "HD II, IV":"HD II, IV",
            "HD II kiemelt":"HD II kiemelt",
            "HD II kiemelt, IV":"HD II kiemelt, IV",
            "HD II kiemelt, V":"HD II kiemelt, V",
            "HD II, V":"HD II, V",
            "HD IV":"HD IV",
            "HD V":"HD V",
            "IAS":"IAS"
        },
        "level_method":"values",
        "sources":"",
        "restrictions":{"scientific_name":["not null","unique"]}
    },
    "odonata_hun": {
        "description":"Checklist for Hungarian odonata species",
        "label_for_levels":"Give the species names and the name status",
        "levels":{
            "elfogadott":"accepted",
            "szinoním":"synonym"
        },
        "level_method":"values",
        "source":"BNPI, Ferenc Attila",
        "restrictions":{"scientific_name":["not null","unique"]}
    },
    "orthoptera_hun": {
        "description":"Checklist for Hungarian orthoptera species",
        "label_for_levels":"Choose a category",
        "levels":{
            "elfogadott":"accepted",
            "szinoním":"synonym"
        },
        "level_method":"values",
        "source":"Rácz István András",
        "restrictions":{"scientific_name":["not null","unique"]}
    },
    "shortnames":{
        "description":"Six letters long abbreviation for Bird species",
        "label_for_levels":"Type the abbreviation",
        "levels":{},
        "level_method":"input",
        "sources":"Miklós Bán",
        "restrictions":{"scientific_name":["not null","unique"]}
    },
    "spider_hun":{
        "description":"Checklist for Hungarian spider species",
        "label_for_levels":"Choose a category",
        "levels":{
            "elfogadott":"accepted",
            "szinoním":"synonym"
        },
        "level_method":"values",
        "sources":" ANPI, Huber Attila",
        "restrictions":{"scientific_name":["not null","unique"]}
    },
    "subspecies":{
        "description":"Subspecies",
        "label_for_levels":"Type the subspecies name",
        "levels":{},
        "level_method":"input",
        "sources":"",
        "restrictions":{"scientific_name":["not null","unique"]}
    },
    "taxon_hun": {
        "description":"Subjective Hungarian taxon categories",
        "label_for_levels":"Choose a category",
        "levels":{
                "Emlősök":"emlősök",
                "Gombák":"gombák",
                "Gyűrűsférgek":"gyűrűsférgek",
                "Halak":"halak",
                "Hüllők":"hüllők",
                "Ízeltlábúak":"ízeltlábúak",
                "Kétéltűek":"kétéltűek",
                "Laposférgek":"laposférgek",
                "Madarak":"madarak",
                "Mohák":"mohák",
                "Növények":"növények",
                "Puhatestűek":"puhatestűek"
        },
        "level_method":"values",
        "source":"ANPI biotika, https://termeszetvedelem.hu/vedett-es-fokozottan-vedett-noveny-es-allatfajok-vedelme/",
        "restrictions":{"scientific_name":["not null","unique"]}
    },
    "protected_hun": {
        "description":"Hungarian protection categories",
        "label_for_levels":"Choose a category",
        "levels":{
            "Fokozottan védett":"Fokozottan védett",
            "Védett":"Védett",
            "Nem védett / indifferens":"Nem védett / indifferens",
            "Inváziós":"Inváziós",
            "5_melleklet":"5_melleklet",
            "7_melleklet":"7_melleklet",
            "8_melleklet":"8_melleklet"
        },
        "level_method":"values",
        "source":"DINPI, Mocskonyi Zsófia",
        "restrictions":{"scientific_name":["not null","unique"]}
    }
}
