"species_name","new_hun_name"
"Aeshna affinis","nyári karcsúacsa"
"Aeshna cyanea","sebes karcsúacsa"
"Aeshna isoceles","zöldszemű karcsúacsa"
"Aeshna mixta","kései karcsúacsa"
"Anaciaeschna isosceles","zöldszemű karcsúacsa"
"Anax ephippiger","vándor óriásacsa"
"Anax imperator","zöld óriásacsa"
"Anax parthenope","barna óriásacsa"
"Brachytron pratense","szőrös karcsúacsa"
"Calopteryx splendens","sávos szitakötő"
"Calopteryx virgo","kisasszony-szitakötő"
"Chalcolestes parvidens","keleti zöld-rablószitakötő"
"Chalcolestes viridis","nyugati zöld-rablószitakötő"
"Coenagrion ornatum","díszes légivadász"
"Coenagrion puella","azúrkék légivadász"
"Coenagrion pulchellum","karcsú légivadász"
"Coenagrion scitulum","mediterrán légivadász"
"Cordulegaster bidentata","sötét hegyiszitakötő"
"Cordulegaster heros","balkáni hegyiszitakötő"
"Cordulia aenea","bronzos smaragdszitakötő"
"Crocothemis erythraea","skarlát szitakötő"
"Enallagma cyathigerum","kéksávos légivadász"
"Epitheca bimaculata","kétfoltos sárkányszitakötő"
"Erythromma najas","nagy pirosszemű-légivadász"
"Erythromma viridulum","kis pirosszemű-légivadász"
"Erythromma lindenii","kékszemű légivadász"
"Gomphus flavipes","sárgalábú folyami-szitakötő"
"Gomphus vulgatissimus","feketelábú folyami-szitakötő"
"Hemianax ephippiger","vándor óriásacsa"
"Ischnura elegans","kéköves légivadász"
"Ischnura pumilio","apró légivadász"
"Lestes barbarus","foltosszárnyjegyű rablószitakötő"
"Lestes dryas","réti rablószitakötő"
"Lestes macrostigma","nagyfoltos rablószitakötő"
"Lestes sponsa","lomha rablószitakötő"
"Lestes virens","kis rablószitakötő"
"Leucorrhinia caudalis","tavi álarcos-szitakötő"
"Leucorrhinia pectoralis","lápi álarcos-szitakötő"
"Libellula depressa","széles laposacsa"
"Libellula fulva","kisfoltos laposacsa"
"Libellula quadrimaculata","négyfoltos laposacsa"
"Onychogomphus forcipatus","gyűrűs folyami-szitakötő"
"Ophiogomphus cecilia","zöld folyami-szitakötő"
"Orthetrum albistylum","fehérfarkú pásztorszitakötő"
"Orthetrum brunneum","pataki pásztorszitakötő"
"Orthetrum cancellatum","feketefarkú pásztorszitakötő"
"Orthetrum coerulescens","karcsú pásztorszitakötő"
"Platycnemis pennipes","széleslábú szitakötő"
"Pyrrhosoma nymphula","vörös légivadász"
"Somatochlora flavomaculata","sárgafoltos smaragdszitakötő"
"Somatochlora metallica","északi smaragdszitakötő"
"Stylurus flavipes","sárgalábú folyami-szitakötő"
"Sympecma fusca","téli rablószitakötő"
"Sympetrum danae","fekete katona-szitakötő"
"Sympetrum depressiusculum","ékfoltos katona-szitakötő"
"Sympetrum flaveolum","sárgafoltos katona-szitakötő"
"Sympetrum fonscolombii","vándor katona-szitakötő"
"Sympetrum meridionale","fakó katona-szitakötő"
"Sympetrum sanguineum","vörös katona-szitakötő"
"Sympetrum striolatum","harántsávos katona-szitakötő"
"Sympetrum vulgatum","barkós katona-szitakötő"
"Somatochlora meridionalis","déli smaragdszitakötő"
