"species_name","status"
"Myrmeleotettix maculatus","elfogadott"
"Pteronemobius heydenii","elfogadott"
"Stenonemobius bicolor ponticus","elfogadott"
"Oecanthus pellucens","elfogadott"
"Myrmecophylus acervorum","elfogadott"
"Myrmecophylus nonveilleri","elfogadott"
"Ephippiger ephippiger","elfogadott"
"Conocephalus fuscus","elfogadott"
"Conocephalus dorsalis","elfogadott"
"Ruspolia nitidula","elfogadott"
"Meconema thalassinum","elfogadott"
"Meconema meridionale","elfogadott"
"Phaneroptera falcata","elfogadott"
"Phaneroptera nana","elfogadott"
"Isophya kraussii","elfogadott"
"Isophya camptoxypha","elfogadott"
"Isophya stysi","elfogadott"
"Isophya modesta","elfogadott"
"Isophya modestior","elfogadott"
"Isophya pienensis","elfogadott"
"Isophya costata","elfogadott"
"Leptophyes albovittata","elfogadott"
"Leptophyes punctatissima","elfogadott"
"Leptophyes discoidalis","elfogadott"
"Polysarcus denticauda","elfogadott"
"Barbitistes constrictus","elfogadott"
"Barbitistes serricauda","elfogadott"
"Poecilimon brunneri","elfogadott"
"Poecilimon fussi","elfogadott"
"Poecilimon intermedius","elfogadott"
"Poecilimon schmidti","elfogadott"
"Tettigonia viridissima","elfogadott"
"Tettigonia caudata","elfogadott"
"Tettigonia cantans","elfogadott"
"Decticus verrucivorus","elfogadott"
"Platycleis grisea","elfogadott"
"Platycleis affinis","elfogadott"
"Tesselana veyseli","elfogadott"
"Montana montana","elfogadott"
"Metrioptera brachyptera","elfogadott"
"Bicolorana bicolor","elfogadott"
"Roeseliana roeselii","elfogadott"
"Pholidoptera aptera","elfogadott"
"Pholidoptera littoralis","elfogadott"
"Pholidoptera transsylvanica","elfogadott"
"Pholidoptera fallax","elfogadott"
"Pholidoptera griseoaptera","elfogadott"
"Rhacocleis germanica","elfogadott"
"Pachytrachys gracilis","elfogadott"
"Gampsocleis glabra","elfogadott"
"Saga pedo","elfogadott"
"Diestrammena asynamora","elfogadott"
"Xya variegata","elfogadott"
"Xya pfaendleri","elfogadott"
"Tetrix bipunctata","elfogadott"
"Tetrix bolivari","elfogadott"
"Epacromius coerulipes","elfogadott"
"Arcyptera fusca","elfogadott"
"Arcyptera microptera","elfogadott"
"Tetrix subulata","elfogadott"
"Tetrix tenuicornis","elfogadott"
"Tetrix undulata","elfogadott"
"Tetrix ceperoi","elfogadott"
"Acrida ungarica","elfogadott"
"Calliptamus italicus","elfogadott"
"Calliptamus barbarus","elfogadott"
"Paracaloptenus caloptenoides","elfogadott"
"Miramella alpina","elfogadott"
"Odontopodisma decipiens","elfogadott"
"Odontopodisma rubripes","elfogadott"
"Odontopodisma schmidtii","elfogadott"
"Pezotettix giornae","elfogadott"
"Podisma pedestris","elfogadott"
"Pseudopodisma nagyi","elfogadott"
"Epacromius tergestinus","elfogadott"
"Chorthippus dorsatus","elfogadott"
"Chorthippus dichrous","elfogadott"
"Chorthippus albomarginatus","elfogadott"
"Chorthippus oschei","elfogadott"
"Chorthippus montanus","elfogadott"
"Stauroderus scalaris","elfogadott"
"Chorthippus parallelus","elfogadott"
"Dociostaurus maroccanus","elfogadott"
"Dociostaurus brevicollis","elfogadott"
"Euchorthippus declivus","elfogadott"
"Euchorthippus pulvinatus","elfogadott"
"Stenobothrus stigmaticus","elfogadott"
"Euthystira brachyptera","elfogadott"
"Chrysochraon dispar","elfogadott"
"Gomphocerippus rufus","elfogadott"
"Myrmeleotettix antennatus","elfogadott"
"Omocestus minutus","elfogadott"
"Omocestus haemorrhoidalis","elfogadott"
"Omocestus petraeus","elfogadott"
"Omocestus rufipes","elfogadott"
"Omocestus viridulus","elfogadott"
"Stenobothrus eurasius","elfogadott"
"Stenobothrus crassipes","elfogadott"
"Stenobothrus lineatus","elfogadott"
"Stenobothrus nigromaculatus","elfogadott"
"Stenobothrus fischeri","elfogadott"
"Acrotylus insubricus","elfogadott"
"Sphingonotus caerulans","elfogadott"
"Stethophyma grossum","elfogadott"
"Gryllotalpa gryllotalpa","elfogadott"
"Gryllotalpa stepposa","elfogadott"
"Gryllus campestris","elfogadott"
"Acheta domesticus","elfogadott"
"Melanogryllus desertus","elfogadott"
"Modicogryllus frontalis","elfogadott"
"Modicogryllus truncatus","elfogadott"
"Eumodicogryllus bordigalensis","elfogadott"
"Nemobius sylvestris","elfogadott"
"Oedaleus decorus","elfogadott"
"Chorthippus (Glyptobothrus) apricarius","elfogadott"
"Chorthippus (Glyptobothrus) mollis","elfogadott"
"Chorthippus (Glyptobothrus) vagans","elfogadott"
"Chorthippus (Glyptobothrus) brunneus","elfogadott"
"Chorthippus (Glyptobothrus) biguttulus","elfogadott"
"Leptophyes boscii","elfogadott"
"Acrotylus longipes","elfogadott"
"Aiolopus thalassinus","elfogadott"
"Aiolopus strepens","elfogadott"
"Celes variabilis","elfogadott"
"Locusta migratoria","elfogadott"
"Mecosthetus parapleurus","elfogadott"
"Oedipoda coerulescens","elfogadott"
"Psophus stridulus","elfogadott"
