"species_name","value"
"Stellaria nemorum","PV"
"Hesperis sylvestris","PV"
"Limodorum abortivum","PV"
"Festuca amethystina","AV"
"Asperula arvensis","K"
"Aruncus sylvestris","PV"
"Crocus vittatus","AV"
"Dryopteris pseudo-mas","PV"
"Cnidium dubium","PV"
"Sorbus ×javorkae","PV"
"Filago vulgaris subsp. lutescens","PV"
"Trigonella gladiata","PV"
"Ribes petraeum","K"
"Sorbus incisa","PV"
"Hippophaë rhamnoides subsp. carpatica","KV"
"Allium atropurpureum","PV"
"Orthilia secunda","PV"
"Thladiantha dubia","PV"
"Nardus stricta","PV"
"Nymphoides peltata","PV"
"Dactylorhiza maculata subsp. transsylvanica","KV"
"Iris graminea subsp. pseudocyperus","PV"
"Scilla paratheticum","PV"
"Juncus capitatus","KV"
"Coronilla emerus","PV"
"Orchis ustulata","PV"
"Doronicum austriacum","PV"
"Ajuga laxmannii","PV"
"Bassia sedoides","PV"
"Petasites albus","PV"
"Chaerophyllum aureum","PV"
"Senecio rivularis","PV"
"Scopolia carniolica","PV"
"Polystichum braunii","AV"
"Rubus saxatilis","PV"
"Nymphaea alba","PV"
"Lathyrus palustris","PV"
"Viola stagnina","AV"
"Dianthus plumarius subsp. regis-stephani","PV"
"Batrachium baudotii","PV"
"Sempervivum tectorum","KV"
"Pedicularis palustris","KV"
"Cuscuta epilinum","K"
"Daphne cneorum subsp. arbusculoides","AV"
"Crocus tommasinianus","AV"
"Groenlandia densa","K"
"Agrostemma githago","PV"
"Dentaria glandulosa","PV"
"Jurinea mollis","PV"
"Knautia dipsacifolia","KV"
"Bifora radians","PV"
"Senecio umbrosus","KV"
"Bryonia dioica","PV"
"Scandix pecten-veneris","K"
"Vaccaria hispanica","AV"
"Sorbus ×pseudograeca","PV"
"Crepis pannonica","AV"
"Lolium remotum","K"
"Dactylorhiza incarnata var. hyphaematodes","PV"
"Orchis simia","PV"
"Stipa bromoides","KV"
"Carex umbrosa","PV"
"Amygdalus nana","PV"
"Aconitum anthora","PV"
"Nasturtium officinale","AV"
"Gymnadenia conopsea subsp. densiflora","PV"
"Salix eleagnos","AV"
"Gladiolus imbricatus","AV"
"Geranium bohemicum","K"
"Bidens cernua","PV"
"Potentilla neumanniana","K"
"Physocaulis nodosus","PV"
"Dactylorhiza incarnata","PV"
"Primula farinosa subsp. alpigena","KV"
"Melampyrum arvense","PV"
"Schoenoplectus americanus subsp. triangularis","PV"
"Anchusa azurea","PV"
"Anchusa ochroleuca subsp. pustulata","KV"
"Alchemilla crinita","KV"
"Ribes nigrum","PV"
"Orobanche purpurea","PV"
"Veronica acinifolia","AV"
"Lysimachia nemorum","KV"
"Batrachium fluitans","AV"
"Cicuta virosa","AV"
"Allium atroviolaceum","PV"
"Ceratocephalus testiculatus","AV"
"Hypericum elegans","PV"
"Epilobium collinum","PV"
"Centunculus minimus","PV"
"Zannichellia palustris","PV"
"Bulbocodium versicolor","AV"
"Carlina acaulis","PV"
"Anchusa barrelieri","PV"
"Aphanes microcarpa","PV"
"Bupleurum pachnospermum","PV"
"Cirsium erisithales","PV"
"Alchemilla gracilis","PV"
"Digitalis ferruginea","AV"
"Sorbus ×barthae","KV"
"Iris arenaria","PV"
"Carex lasiocarpa","AV"
"Carex davalliana","PV"
"Triglochin maritimum","PV"
"Taeniatherum asperum","AV"
"Calamagrostis stricta","AV"
"Serratula radiata","PV"
"Alnus incana","PV"
"Lathyrus linifolius var. montanus","PV"
"Linaria ×kocianovichii","PV"
"Thlaspi kovatsii subsp. schudichii","KV"
"Crepis nicaeensis","PV"
"Galium parisiense","AV"
"Parnassia palustris","PV"
"Equisetum variegatum","PV"
"Biscutella laevigata subsp. illyrica","PV"
"Thelypteris palustris","PV"
"Lathyrus transsilvanicus","KV"
"Catabrosa aquatica","PV"
"Asyneuma canescens subsp. salicifolium","PV"
"Sorbus ×simonkaiana","PV"
"Biscutella laevigata subsp. austriaca","PV"
"Aira caryophyllea","PV"
"Androsace maxima","AV"
"Lysimachia thyrsiflora","K"
"Conringia orientalis","PV"
"Carex appropinquata","PV"
"Juncus maritimus","PV"
"Aster sedifolius subsp. canus","PV"
"Carex paniculata","PV"
"Iris graminea","PV"
"Helictotrichon pratense","AV"
"Festuca altissima","PV"
"Sorbus carpinifolia","PV"
"Apera interrupta","AV"
"Tofieldia calyculata","K"
"Hieracium aurantiacum","KV"
"Utricularia minor","KV"
"Vitis sylvestris","AV"
"Carex nigra","PV"
"Alchemilla glabra","AV"
"Alchemilla hungarica","PV"
"Dianthus armeria subsp. armeriastrum","PV"
"Hieracium bupleuroides subsp. tatrae","KV"
"Sorbus ×borosiana","KV"
"Taxus baccata","PV"
"Polystichum lonchitis","AV"
"Scabiosa columbaria","AV"
"Centaurea stenolepis","PV"
"Chamaecytisus hirsutus subsp. leucotrichus","PV"
"Corydalis intermedia","PV"
"Pleurospermum austriacum","AV"
"Crataegus nigra","AV"
"Chrysanthemum serotinum","PV"
"Senecio ovirensis subsp. gaudinii","KV"
"Physospermum cornubiense","AV"
"Sorbus ×andreanszkyana","AV"
"Carex fritschii","PV"
"Sesleria varia","AV"
"Papaver argemone","PV"
"Biscutella laevigata","PV"
"Polystichum setiferum","PV"
"Gentianella ciliata","PV"
"Blysmus compressus","AV"
"Helianthemum nummularium","PV"
"Astragalus contortuplicatus","AV"
"Epipactis placentina","KV"
"Sorbus ×pannonica","PV"
"Carex bohemica","AV"
"Schoenoplectus triqueter","AV"
"Senecio paludosus","PV"
"Alchemilla glaucescens","KV"
"Ophrys sphecodes","PV"
"Silene dichotoma","PV"
"Crocus albiflorus","KV"
"Anemone trifolia","AV"
"Orchis pallens","PV"
"Carex limosa","K"
"Cuscuta lupuliformis","PV"
"Trifolium strictum","PV"
"Trifolium ornithopodioides","AV"
"Lolium temulentum","K"
"Drosera rotundifolia","AV"
"Thesium dollineri","PV"
"Tragopogon floccosus","PV"
"Lilium martagon subsp. alpinum","KV"
"Aster oleifolius","AV"
"Alnus viridis","AV"
"Inula germanica","PV"
"Asphodelus albus","PV"
"Minuartia viscosa","AV"
"Cotoneaster tomentosus","PV"
"Lotus angustissimus","PV"
"Carex caespitosa","AV"
"Iris sibirica","PV"
"Astragalus sulcatus","AV"
"Aethionema saxatile","PV"
"Artemisia austriaca","PV"
"Bupleurum longifolium","AV"
"Alchemilla acutiloba","PV"
"Senecio aurantiacus","AV"
"Linaria arvensis","K"
"Vicia narbonensis subsp. serratifolia","PV"
"Sagina nodosa","K"
"Legousia speculum-veneris","PV"
"Epipactis tallosii","PV"
"Salsola soda","AV"
"Galium divaricatum","AV"
"Goodyera repens","KV"
"Crocus heuffelianus","PV"
"Orobanche reticulata","PV"
"Ranunculus lingua","PV"
"Gymnadenia odoratissima","AV"
"Scabiosa columbaria subsp. pseudobanatica","AV"
"Alchemilla monticola","PV"
"Pulmonaria angustifolia","PV"
"Rhamnus saxatilis","AV"
"Huperzia selago","KV"
"Schoenoplectus setaceus","PV"
"Spergula pentandra","PV"
"Lunaria rediviva","PV"
"Trifolium micranthum","PV"
"Pinguicula vulgaris","KV"
"Geranium sylvaticum","KV"
"Armeria elongata","AV"
"Ceterach javorkaeanum","PV"
"Sesleria uliginosa","PV"
"Botrychium lunaria","PV"
"Anacamptis pyramidalis","PV"
"Sorbus ×gerecseensis","AV"
"Asplenium lepidum","KV"
"Cardamine trifolia","KV"
"Samolus valerandi","PV"
"Vicia biennis","AV"
"Pisum elatius","PV"
"Eleocharis quinqueflora","PV"
"Echium russicum","PV"
"Epipactis microphylla","PV"
"Montia fontana subsp. minor","PV"
"Trigonella procumbens","PV"
"Vulpia bromoides","PV"
"Orchis mascula subsp. signifera","PV"
"Gagea spathacea","PV"
"Platanthera chlorantha","PV"
"Saxifraga paniculata","PV"
"Stachys alpina","PV"
"Calamagrostis villosa","KV"
"Rumex pseudonatronatus","AV"
"Trifolium vesiculosum","KV"
"Calamagrostis canescens","PV"
"Dianthus diutinus","AV"
"Senecio fluviatilis","PV"
"Arabis alpina","AV"
"Valerianella pumila","PV"
"Najas minor","PV"
"Sorbus ×gayeriana","PV"
"Stellaria palustris","AV"
"Gnaphalium luteo-album","PV"
"Schoenoplectus mucronatus","PV"
"Minuartia frutescens","PV"
"Sorbus ×bakonyensis","PV"
"Cotoneaster integerrimus","PV"
"Polygonum graminifolium","AV"
"Pinguicula alpina","K"
"Peucedanum palustre","PV"
"Veronica pallens","KV"
"Carex rostrata","AV"
"Valeriana tripteris subsp. austriaca","PV"
"Viola pumila","PV"
"Glaux maritima","AV"
"Ophrys fuciflora","KV"
"Sagina subulata","PV"
"Muscari botryoides subsp. kerneri","PV"
"Buphthalmum salicifolium","PV"
"Valerianella coronata","PV"
"Himantoglossum caprinum","AV"
"Silene flavescens","KV"
"Althaea cannabina","PV"
"Orobanche nana","KV"
"Allium carinatum","PV"
"Cimicifuga europaea","KV"
"Festuca dalmatica","PV"
"Orobanche caesia","KV"
"Oxytropis pilosa subsp. hungarica","PV"
"Malaxis monophyllos","K"
"Thesium bavarum","KV"
"Urtica kioviensis","PV"
"Silaum peucedanoides","AV"
"Calamintha thymifolia","KV"
"Micropus erectus","PV"
"Vicia lutea","AV"
"Trifolium diffusum","PV"
"Spiranthes spiralis","PV"
"Polygonum bistorta","PV"
"Galium austriacum","PV"
"Coronilla coronata","PV"
"Cheilanthes marantae","KV"
"Campanula latifolia","KV"
"Rosa scarbriuscula","AV"
"Ranunculus nemorosus","PV"
"Dactylorhiza incarnata var. ochrantha","PV"
"Aquilegia vulgaris subsp. nigricans","PV"
"Alyssum saxatile","PV"
"Geranium pratense","PV"
"Cardaminopsis halleri","KV"
"Potamogeton gramineus","AV"
"Hieracium staticifolium","K"
"Woodsia alpina","K"
"Valeriana simplicifolia","KV"
"Carex lepidocarpa","PV"
"Dactylorhiza maculata","K"
"Arnica montana","K"
"Digitalis lanata","PV"
"Senecio paludosus subsp. lanatus","PV"
"Vicia sylvatica","AV"
"Hieracium caespitosum","PV"
"Onosma arenarium","PV"
"Epipactis nordeniorum","PV"
"Sorbus ×pseudovertesensis","PV"
"Fritillaria meleagris","PV"
"Diphasium complanatum","PV"
"Moneses uniflora","PV"
"Lonicera nigra","KV"
"Carex hostiana","PV"
"Rhynchospora alba","K"
"Primula elatior","PV"
"Sorbus domestica","PV"
"Epipactis muelleri","PV"
"Vaccinium vitis-idaea","PV"
"Himantoglossum adriaticum","AV"
"Salix aurita","PV"
"Epipactis latina","PV"
"Carex ericetorum","PV"
"Stratiotes aloides","PV"
"Euphorbia angulata","PV"
"Medicago orbicularis","KV"
"Matteuccia struthiopteris","PV"
"Eriophorum vaginatum","KV"
"Sorbus ×balatonica","PV"
"Corallorhiza trifida","AV"
"Coronilla vaginalis","PV"
"Dactylorhiza incarnata subsp. serotina","PV"
"Lamium orvala","AV"
"Epipactis purpurata var. rosea","PV"
"Potamogeton trichoides","PV"
"Galium pumilum","PV"
"Helminthia echioides","PV"
"Sorbus ×pseudobakonyensis","AV"
"Antennaria dioica","PV"
"Scorzonera humilis","PV"
"Globularia cordifolia","KV"
"Aconitum variegatum subsp. gracilis","PV"
"Centaurea mollis","AV"
"Osmunda regalis","KV"
"Comarum palustre","AV"
"Lycopsis arvensis","PV"
"Daphne mezereum","PV"
"Dryopteris cristata","KV"
"Thlaspi coerulescens","KV"
"Asperula taurina subsp. leucanthera","PV"
"Carex transsylvanica","AV"
"Dianthus plumarius subsp. praecox","KV"
"Rumex confertus","PV"
"Chlorocyperus glaber","AV"
"Salix pentandra","KV"
"Cuscuta australis","PV"
"Orchis tridentata","PV"
"Sorbus ×buekkensis","PV"
"Angelica palustris","AV"
"Carex hordeistichos","PV"
"Acorus calamus","PV"
"Sedum caespitosum","PV"
"Erysimum pallidiflorum","AV"
"Rosa pendulina","PV"
"Knautia kitaibelii subsp. tomentella","AV"
"Hydrocotyle vulgaris","AV"
"Dianthus superbus","PV"
"Daphne laureola","PV"
"Plantago argentea","PV"
"Arenaria procera subsp. glabra","PV"
"Carthamus lanatus","PV"
"Sternbergia colchiciflora","PV"
"Carex diandra","KV"
"Sorbus ×redliana","PV"
"Hypericum barbatum","KV"
"Juncus tenageia","AV"
"Cirsium furiens","AV"
"Drosera anglica","K"
"Verbena supina","PV"
"Aegilops cylindrica","PV"
"Gentianella austriaca","AV"
"Lathyrus aphaca","PV"
"Astragalus varius","PV"
"Orobanche alsatica","PV"
"Asplenium adiantum-nigrum","PV"
"Chamaecytisus heuffelii","KV"
"Epilobium palustre","AV"
"Juncus bulbosus","K"
"Althaea hirsuta","PV"
"Thlaspi goesingense","KV"
"Polygala amarella subsp. austriaca","PV"
"Eranthis hyemalis","PV"
"Polycnemum verrucosum","AV"
"Oreopteris limbosperma","PV"
"Taraxacum serotinum","PV"
"Eriophorum angustifolium","PV"
"Betula pubescens","PV"
"Hesperis matronalis subsp. spontanea","PV"
"Sorbus ×adamii","KV"
"Asplenium viride","AV"
"Astrantia major","PV"
"Viscum album subsp. abietis","PV"
"Equisetum sylvaticum","PV"
"Potamogeton obtusifolius","K"
"Sparganium emersum","PV"
"Misopates orontium","PV"
"Sorbus ×decipientiformis","AV"
"Ophioglossum vulgatum","PV"
"Selaginella helvetica","AV"
"Pyrola minor","PV"
"Dactylorhiza majalis","PV"
"Gymnocarpium robertianum","PV"
"Epipactis purpurata","PV"
"Iris spuria","PV"
"Elatine hydropiper","AV"
"Teucrium scorodonia","AV"
"Leontodon incanus","PV"
"Agropyron elongatum","PV"
"Trifolium subterraneum var. brachycladum","AV"
"Crepis polymorpha","AV"
"Orchis laxiflora subsp. elegans","PV"
"Epipactis pontica","PV"
"Gagea bohemica","PV"
"Dactylorhiza ochroleuca","KV"
"Scilla autumnalis","PV"
"Trigonella monspeliaca","PV"
"Hierochloe australis","PV"
"Thesium dollineri subsp. simplex","PV"
"Utricularia bremii","KV"
"Veronica opaca","KV"
"Ludwigia palustris","PV"
"Epipactis voethii","PV"
"Lycopodium annotinum","AV"
"Draba lasiocarpa","PV"
"Biscutella laevigata subsp. kerneri","PV"
"Scilla spetana","KV"
"Ceterach officinarum","PV"
"Pyramidula tetragona","AV"
"Chlorocyperus longus","AV"
"Muscari botryoides","PV"
"Coronilla elegans","AV"
"Ribes alpinum","PV"
"Juncus subnodulosus","PV"
"Thlaspi alliaceum","PV"
"Puccinellia pannonica","K"
"Hypericum maculatum subsp. obtusiusculum","PV"
"Erodium ciconium","PV"
"Narcissus angustifolius","AV"
"Artemisia scoparia","PV"
"Dianthus collinus subsp. glabriusculus","PV"
"Verbascum pulverulentum","PV"
"Blackstonia acuminata","PV"
"Phleum paniculatum","PV"
"Carex disticha","PV"
"Ornithogalum degenianum","PV"
"Menyanthes trifoliata","AV"
"Conringia austriaca","PV"
"Sorbus ×pseudolatifolia","AV"
"Traunsteinera globosa","AV"
"Juncus atratus","PV"
"Anemone sylvestris","PV"
"Kochia prostrata","PV"
"Ranunculus psilostachys","AV"
"Phyllitis scolopendrium","PV"
"Vaccinium oxycoccos","KV"
"Dactylorhiza lapponica","KV"
"Epipactis atrorubens","PV"
"Anthriscus nitida","PV"
"Glyceria declinata","PV"
"Amelanchier ovalis","PV"
"Batrachium peltatum","KV"
"Peucedanum arenarium","PV"
"Filago minima","PV"
"Orobanche picridis","PV"
"Epipactis palustris","PV"
"Succisella inflexa","PV"
"Hippuris vulgaris","PV"
"Dracocephalum ruyschiana","KV"
"Ophrys holubyana","KV"
"Sorbus ×vertesensis","PV"
"Helichrysum arenarium","PV"
"Calamagrostis varia","PV"
"Geranium palustre","PV"
"Trinia ramosissima","PV"
"Inula spiraeifolia","PV"
"Neslea paniculata","PV"
"Sorbus ×eugenii-kelleri","PV"
"Phyteuma spicatum","PV"
"Silene nemoralis","PV"
"Daphne cneorum","PV"
"Lappula patula","AV"
"Circaea alpina","AV"
"Hemerocallis lilio-asphodelus","AV"
"Alchemilla subcrenata","PV"
"Armoracia macrocarpa","PV"
"Erysimum crepidifolium","PV"
"Lathyrus pallescens","KV"
"Alisma gramineum","PV"
"Dianthus collinus","PV"
"Veronica paniculata","PV"
"Primula auricula subsp. hungarica","AV"
"Veronica agrestis","KV"
"Crepis paludosa","PV"
"Allium paniculatum subsp. marginatum","PV"
"Sesleria heuflerana","PV"
"Euphorbia villosa","PV"
"Elatine triandra","PV"
"Calla palustris","K"
"Pycreus flavescens","PV"
"Echinops ruthenicus","PV"
"Onosma visianii","PV"
"Equisetum hyemale","PV"
"Ceratoides latens","K"
"Omphalodes scorpioides","PV"
"Dactylorhiza incarnata subsp. haematodes","PV"
"Scirpus radicans","PV"
"Ostrya carpinifolia","K"
"Hesperis matronalis subsp. candida","PV"
"Chenopodium botryoides","PV"
"Anogramma leptophylla","KV"
"Allium victorialis","AV"
"Orobanche flava","PV"
"Sedum hispanicum","PV"
"Achillea crithmifolia","PV"
"Viola collina","PV"
"Centaurea calcitrapa","AV"
"Aira elegantissima","PV"
"Carex echinata","AV"
"Sorbus ×semiincisa","PV"
"Galium rivale","PV"
"Juncus sphaerocarpus","PV"
"Chimaphila umbellata","AV"
"Lycopodium clavatum","PV"
"Spiraea salicifolia","AV"
"Doronicum orientale","PV"
"Sambucus racemosa","PV"
"Reseda inodora","AV"
"Sorbus aria","PV"
"Epipactis bugacensis","PV"
"Carex buxbaumii","AV"
"Thalictrum foetidum","KV"
"Calamagrostis purpurea","KV"
"Myosotis discolor","PV"
"Pyrus ×austriaca","PV"
"Astragalus asper","PV"
"Linum trigynum","KV"
"Aremonia agrimonioides","PV"
"Sorbus ×degenii","PV"
"Leucojum aestivum","PV"
"Orobanche arenaria","PV"
"Hierochloe repens","PV"
"Caucalis latifolia","KV"
"Poa remota","AV"
"Potamogeton acutifolius","PV"
"Hottonia palustris","PV"
"Ranunculus lateriflorus","PV"
"Euphorbia verrucosa","AV"
"×Asplenoceterach badense","KV"
"Eriophorum latifolium","PV"
"Trollius europaeus subsp. demissorum","AV"
"Linum flavum","PV"
"Erythronium dens-canis","PV"
"Glyceria nemoralis","PV"
"Moehringia muscosa","PV"
"Aconitum moldavicum","PV"
"Ophrys apifera","PV"
"Sagina sabuletorum","PV"
"Centaurea solstitialis","PV"
"Gymnadenia conopsea","PV"
"Laserpitium prutenicum","PV"
"Torilis ucranica","PV"
"Sorbus graeca","PV"
"Teesdalia nudicaulis","PV"
"Asperula orientalis","K"
"Galium tricornutum","PV"
"Colchicum hungaricum","AV"
"Dactylorhiza fuchsii subsp. sooiana","PV"
"Zannichellia palustris subsp. polycarpa","PV"
"Teucrium botrys","PV"
"Cirsium boujarti","PV"
"Sorbus ×karpatii","AV"
"Lathyrus pisiformis","AV"
"Potentilla rupestris","PV"
"Scleranthus perennis","KV"
"Carex brevicollis","PV"
"Epipactis leptochila subsp. neglecta","PV"
"Allium rotundum subsp. waldsteinii","PV"
"Verbascum speciosum","PV"
"Lepidium graminifolium","AV"
"Epipactis leptochila","PV"
"Gentianella livonica","KV"
"Fumaria rostellata","PV"
"Potentilla patula","PV"
"Isatis tinctoria","PV"
"Juncus alpinus","AV"
"Trichophorum alpinum","K"
"Muscari tenuiflorum","PV"
"Achillea ptarmica","PV"
"Epipactis futakii","AV"
"Heliotropium supinum","PV"
"Stellaria uliginosa","PV"
"Peucedanum officinale","PV"
"Saxifraga adscendens","KV"
"Salix nigricans","KV"
"Cirsium ×candolleanum","PV"
"Cardamine flexuosa","PV"
"Papaver hybridum","PV"
"Silaum silaus","PV"
"Alchemilla xanthochlora","AV"
"Ophrys scolopax subsp. cornuta","AV"
"Silene longiflora","PV"
"Woodsia ilvensis","AV"
"Potamogeton coloratus","KV"
"Acorellus pannonicus","PV"
"Oenanthe banatica","PV"
"Senecio ovirensis","KV"
"Valeriana excelsa","AV"
"Medicago arabica","PV"
"Schoenoplectus litoralis","AV"
"Carpinus orientalis","AV"
"Medicago rigidula","PV"
"Eragrostis megastachya","PV"
"Sorbus ×pseudosemiincisa","AV"
"Chenopodium bonus-henricus","PV"
"Allium moschatum","PV"
"Galium tenuissimum","AV"
"Bromus secalinus","AV"
"Asyneuma canescens","PV"
"Erodium neilreichii","AV"
"Epilobium obscurum","PV"
"Coronopus squamatus","PV"
"Clematis alpina","AV"
"Phegopteris connectilis","PV"
"Epipactis albensis","AV"
"Erysimum hieracifolium","PV"
"Vincetoxicum pannonicum","AV"
"Carex elongata","PV"
"Glaucium corniculatum","PV"
"Sorbus ×subdanubialis","KV"
"Suaeda prostrata subsp. prostrata","PV"
"Sorbus ×danubialis","PV"
"Peucedanum verticillare","PV"
"Ephedra distachya","PV"
"Epilobium lanceolatum","PV"
"Ornithogalum comosum","PV"
"Epipactis atrorubens subsp. borbasii","PV"
"Sorbus aucuparia","PV"
"Eleocharis ovata","PV"
"Muscari botryoides subsp. transsilvanicum","PV"
"Ophrys insectifera","AV"
"Bupleurum rotundifolium","PV"
"Blechnum spicant","KV"
"Dactylorhiza sambucina","PV"
"Zannichellia palustris subsp. pedicellata","PV"
"Chaerophyllum hirsutum","KV"
"Sparganium minimum","KV"
"Biscutella laevigata subsp. hungarica","PV"
"Doronicum hungaricum","PV"
"Peltaria perennis","AV"
"Gentiana pneumonanthe","PV"
"Wolffia arrhiza","PV"
"Polygala amarella","PV"
"Lathyrus sphaericus","PV"
"Rosa sancti-andreae","KV"
"Plantago altissima","PV"
"Gentiana cruciata","PV"
"Carex hartmannii","PV"
"Gladiolus palustris","AV"
"Potentilla pusilla","PV"
"Orobanche hederae","PV"
"Calamagrostis pseudophragmites","AV"
"Carduus hamulosus","PV"
"Nepeta parviflora","AV"
"Chamaecytisus ciliatus","PV"
"Geum rivale","KV"
"Herniaria incana","AV"
"Dentaria trifolia","KV"
"Sium sisaroideum","KV"
"Asplenium fontanum","KV"
"Sesleria sadlerana","PV"
"Salvia nutans","KV"
"Oenanthe fistulosa","PV"
"Lythrum linifolium","K"
"Carduus glaucus","AV"
"Chamaecytisus albus","PV"
"Epipactis gracilis","KV"
"Salicornia prostrata subsp. simonkaiana","PV"
"Chenopodium vulvaria","PV"
"Phyteuma orbiculare","PV"
"Medicago nigra","KV"
"Lappula heteracantha","PV"
"Andromeda polifolia","K"
"Crocus reticulatus","PV"
"Ornithogalum refractum","PV"
"Sisymbrium polymorphum","AV"
"Carex canescens","KV"
"Radiola linoides","K"
"Iris aphylla subsp. hungarica","PV"
"Anthericum liliago","PV"
"Myricaria germanica","KV"
"Senecio rupestris","K"
"Pyrola rotundifolia","PV"
"Lilium bulbiferum","KV"
"Telekia speciosa","AV"
"Schoenus nigricans","PV"
"Alchemilla filicaulis","AV"
"Leucojum vernum","PV"
"Elatine alsinastrum","PV"
"Dactylorhiza fuchsii","PV"
"Allium suaveolens","PV"
"Pyrus magyarica","KV"
"Orchis laxiflora subsp. palustris","PV"
"Viola biflora","AV"
"Hammarbya paludosa","KV"
"Diphasium issleri","K"
"Carex repens","AV"
"Sesleria hungarica","PV"
"Hesperis matronalis subsp. vrabelyiana","AV"
"Aldrovanda vesiculosa","KV"
"Typha shuttleworthii","K"
"Dracocephalum austriacum","KV"
"Spiranthes aestivalis","K"
"Lythrum thesioides","K"
"Salicornia prostrata","PV"
"Marsilea quadrifolia","AV"
"Colchicum arenarium","PV"
"Serratula lycopifolia","AV"
"Lythrum tribracteatum","PV"
"Pulsatilla pratensis subsp. hungarica","AV"
"Astragalus dasyanthus","AV"
"Camelina alyssum","K"
"Crambe tataria","AV"
"Linum dolomiticum","KV"
"Coeloglossum viride","PV"
"Eriophorum gracile","K"
"Eleocharis carniolica","PV"
"Ligularia sibirica","K"
"Achillea horanszkyi","KV"
"Campanula macrostachya","AV"
"Sorbus austriaca subsp. hazslinszkyana","KV"
"Astragalus vesicarius subsp. albidus","PV"
"Liparis loeselii","KV"
"Dianthus serotinus","PV"
"Spiraea crenata","KV"
"Orchis coriophora","PV"
"Elatine hungarica","PV"
"Ranunculus polyphyllus","PV"
"Onosma tornense","KV"
"Adenophora liliifolia","KV"
"Seseli leucospermum","PV"
"Elatine hexandra","PV"
"Paeonia officinalis subsp. banatica","AV"
"Brassica elongata","PV"
"Astragalus exscapus","PV"
"Corispermum canescens","PV"
"Apium repens","AV"
"Botrychium virginianum subsp. europaeum","KV"
"Epipogium aphyllum","KV"
"Typha minima","K"
"Botrychium matricariifolium","K"
"Ferula sadleriana","AV"
"Adonis flammea","PV"
"Cypripedium calceolus","AV"
"Herniaria hirsuta","PV"
"Pulsatilla patens","KV"
"Ornithogalum sphaerocarpum","PV"
"Hesperis matronalis","PV"
"Adonis ×hybrida","KV"
"Plantago maxima","KV"
"Botrychium multifidum","KV"
"Caldesia parnassifolia","KV"
